완성품,유란반지 5단계,
일반제물,만령 반지,1
재료,영석,7
,해무진의 혼,20
,비용,27000
완성품,유란반지 10단계,
영웅제물,백청 영웅반지,1
재료,영석,30
,백청 진화석,1
,해무진의 혼,15
,비용,77000
완성품,각성 유란반지 5단계,
일반제물,백청 반지,1
재료,영석,7
,월석,2
,해무진의 혼,20
,비용,31000
완성품,각성 유란반지 10단계,
영웅제물,질풍 반지,1
재료,영석,18
,월석,6
,백청 진화석,1
,비용,78000
완성품,진 유란반지 5단계,
일반제물,뇌옥 반지,1
재료,영석,7
,월석,2
,해무진의 혼,20
,비용,31000
완성품,진 유란반지 10단계,
영웅제물,백월 반지,1
재료,영석,29
,월석,10
,백청 진화석,4
,비용,250000
완성품,각성 백월반지 5단계,
일반제물,대왕 반지,1
재료,영석,12
,월석,4
,해무진의 혼,20
,비용,100000
완성품,각성 백월반지 10단계,
영웅제물,사마 반지 or 설인 반지,1
재료,영석,50
,월석,13
,백청 진화석,1
,백청 고급진화석,1
,얼어붙은 독침,50
,나류석판,1
,비용,370000
완성품,진 백월반지 5단계,
일반제물,환마 반지,1
재료,영석,30
,월석,8
,얼어붙은 독침,50
,비용,150000
완성품,진 백월반지 10단계,
영웅제물,잠식 반지 or 청룡귀 반지,1
재료,영석,40
,월석,15
,백청 진화석,1
,백청 고급진화석,1
,얼어붙은 독침,60
,나류석판,5
,비용,200000
완성품,각성 청룡귀반지 5단계,
일반제물,혈풍 반지,1
재료,영석,18
,월석,4
,얼어붙은 독침,60
,비용,81000
완성품,각성 청룡귀반지 10단계,
영웅제물,수라 반지 or 천명 반지,1
재료,영석,70
,월석,18
,백청 진화석,2
,백청 고급진화석,1
,얼어붙은 독침,60
,나류석판,15
,비용,330000
완성품,진 청룡귀반지 5단계,
일반제물,침묵 반지,1
재료,영석,28
,월석,7
,백청 고급진화석,1
,얼어붙은 독침,60
,비용,130000
완성품,진 청룡귀반지 10단계,