완성품,제룡 진화석,5
재료,제룡림 독액,5
,제룡림 성물,5
,고급 사양토 정제재,5
완성품,사막 진화석,5
재료,대사막 가시,5
,대사막 성물,5
,고급 산청토 정제재,5
완성품,수월 진화석,10
재료,영석,100
,수월평원 눈물,10
,수월평원 성물,5
,고급 산백토 정제재,5
완성품,백청 진화석,10
재료,영석,250
,백청산맥 서리,10
,백청산맥 성물,5
,고급 빙하토 정제재,5
,월석,10
완성품,봉인된 제룡림 장인 치명합성패,1
재료,오동나무,10
완성품,봉인된 제룡림 장인 명중합성패,1
재료,오동나무,10
완성품,봉인된 제룡림 장인 막기합성패,1
재료,오동나무,10
완성품,봉인된 제룡림 장인 회피합성패,1
재료,오동나무,10
완성품,봉인된 제룡림 장인 관통합성패,1
재료,오동나무,10
완성품,봉인된 제룡림 장인 방어합성패,1
재료,오동나무,10
완성품,봉인된 제룡림 장인 대응합성패,1
재료,오동나무,10
완성품,봉인된 제룡림 명공 치명합성패,1
재료,제룡림 장인 치명합성패,1
,닭 뼈,1
,고급 사양토 정제재,1
완성품,봉인된 제룡림 명공 명중합성패,1
재료,제룡림 장인 명중합성패,1
,닭 뼈,1
,고급 사양토 정제재,1
완성품,봉인된 제룡림 명공 막기합성패,1
재료,제룡림 장인 막기합성패,1
,닭 뼈,1
,고급 사양토 정제재,1
완성품,봉인된 제룡림 명공 회피합성패,1
재료,제룡림 장인 회피합성패,1
,닭 뼈,1
,고급 사양토 정제재,1
완성품,봉인된 제룡림 명공 관통합성패,1
재료,제룡림 장인 관통합성패,1
,닭 뼈,1
,고급 사양토 정제재,1
완성품,봉인된 제룡림 명공 방어합성패,1
재료,제룡림 장인 방어합성패,1
,닭 뼈,1
,고급 사양토 정제재,1
완성품,봉인된 제룡림 명공 대응합성패,1
재료,제룡림 장인 대응합성패,1
,닭 뼈,1
,고급 사양토 정제재,1
완성품,봉인된 대사막 장인 치명합성패,1
재료,소나무,10
완성품,봉인된 대사막 장인 명중합성패,1
재료,소나무,10
완성품,봉인된 대사막 장인 막기합성패,1
재료,소나무,10
완성품,봉인된 대사막 장인 회피합성패,1
재료,소나무,10
완성품,봉인된 대사막 장인 관통합성패,1
재료,소나무,10
완성품,봉인된 대사막 장인 방어합성패,1
재료,소나무,10
완성품,봉인된 대사막 장인 대응합성패,1
재료,소나무,10
완성품,봉인된 대사막 명공 치명합성패,1
재료,대사막 장인 치명합성패,1
,여우 뼈,1
,고급 산청토 정제재,1
완성품,봉인된 대사막 명공 명중합성패,1
재료,대사막 장인 명중합성패,1
,여우 뼈,1
,고급 산청토 정제재,1
완성품,봉인된 대사막 명공 막기합성패,1
재료,대사막 장인 막기합성패,1
,여우 뼈,1
,고급 산청토 정제재,1
완성품,봉인된 대사막 명공 회피합성패,1
재료,대사막 장인 회피합성패,1
,여우 뼈,1
,고급 산청토 정제재,1
완성품,봉인된 대사막 명공 관통합성패,1
재료,대사막 장인 관통합성패,1
,여우 뼈,1
,고급 산청토 정제재,1
완성품,봉인된 대사막 명공 방어합성패,1
재료,대사막 장인 방어합성패,1
,여우 뼈,1
,고급 산청토 정제재,1
완성품,봉인된 대사막 명공 대응합성패,1
재료,대사막 장인 대응합성패,1
,여우 뼈,1
,고급 산청토 정제재,1
완성품,봉인된 수월평원 장인 치명합성패,1
재료,편백나무,10
,영석,2
완성품,봉인된 수월평원 장인 명중합성패,1
재료,편백나무,10
,영석,2
완성품,봉인된 수월평원 장인 막기합성패,1
재료,편백나무,10
,영석,2
완성품,봉인된 수월평원 장인 회피합성패,1
재료,편백나무,10
,영석,2
완성품,봉인된 수월평원 장인 관통합성패,1
재료,편백나무,10
,영석,2
완성품,봉인된 수월평원 장인 방어합성패,1
재료,편백나무,10
,영석,2
완성품,봉인된 수월평원 장인 대응합성패,1
재료,편백나무,10
,영석,2
완성품,봉인된 수월평원 명공 회피합성패,1
재료,수월평원 장인 회피합성패,1
,늑대 뼈,1
,고급 산백토 정제재,1
완성품,봉인된 수월평원 명공 관통합성패,1
재료,수월평원 장인 관통합성패,1
,늑대 뼈,1
,고급 산백토 정제재,1
완성품,봉인된 수월평원 명공 방어합성패,1
재료,수월평원 장인 방어합성패,1
,늑대 뼈,1
,고급 산백토 정제재,1
완성품,봉인된 수월평원 명공 대응합성패,1
재료,수월평원 장인 대응합성패,1
,늑대 뼈,1
,고급 산백토 정제재,1
완성품,봉인된 수월평원 명공 치명합성패,1
재료,수월평원 장인 치명합성패,1
,늑대 뼈,1
,고급 산백토 정제재,1
완성품,봉인된 수월평원 명공 명중합성패,1
재료,수월평원 장인 명중합성패,1
,늑대 뼈,1
,고급 산백토 정제재,1
완성품,봉인된 수월평원 명공 막기합성패,1
재료,수월평원 장인 막기합성패,1
,늑대 뼈,1
,고급 산백토 정제재,1
완성품,봉인된 백청산맥 장인 치명합성패,1
재료,동백나무,10
,영석,15
완성품,봉인된 백청산맥 장인 명중합성패,1
재료,동백나무,10
,영석,15
완성품,봉인된 백청산맥 장인 막기합성패,1
재료,동백나무,10
,영석,15
완성품,봉인된 백청산맥 장인 회피합성패,1
재료,동백나무,10
,영석,15
완성품,봉인된 백청산맥 장인 관통합성패,1
재료,동백나무,10
,영석,15
완성품,봉인된 백청산맥 장인 방어합성패,1
재료,동백나무,10
,영석,15
완성품,봉인된 백청산맥 장인 대응합성패,1
재료,동백나무,10
,영석,15
완성품,백청산맥 명공 회피합성패 상자,1
제작비,,2200
재료,봉인된 백청산맥 장인 회피합성패,1
,곰 뼈,5
,영석,60
,고급 빙하토 정제재,5
완성품,백청산맥 명공 관통합성패 상자,1
제작비,,2200
재료,봉인된 백청산맥 장인 관통합성패,1
,곰 뼈,5
,영석,60
,고급 빙하토 정제재,5
완성품,백청산맥 명공 방어합성패 상자,1
제작비,,2200
재료,백청산맥 장인 방어합성패,1
,곰 뼈,5
,영석,60
,고급 빙하토 정제재,5
완성품,백청산맥 명공 대응합성패 상자,1
제작비,,2200
재료,백청산맥 장인 대응합성패,1
,곰 뼈,5
,영석,60
,고급 빙하토 정제재,5
완성품,백청산맥 명공 치명합성패 상자,1
제작비,,2200
재료,백청산맥 장인 치명합성패,1
,곰 뼈,5
,영석,60
,고급 빙하토 정제재,5
완성품,백청산맥 명공 명중합성패 상자,1
제작비,,2200
재료,백청산맥 장인 명중합성패,1
,곰 뼈,5
,영석,60
,고급 빙하토 정제재,5
완성품,백청산맥 명공 막기합성패 상자,1
제작비,,2200
재료,백청산맥 장인 막기합성패,1
,곰 뼈,5
,영석,60
,고급 빙하토 정제재,5
완성품,봉인된 백청산맥 명공 회피합성패 ,5
제작비,,2200
재료,봉인된 백청산맥 장인 회피합성패,1
,곰 뼈,5
,영석,60
,고급 빙하토 정제재,5
완성품,봉인된 백청산맥 명공 관통합성패,5
제작비,,2200
재료,봉인된 백청산맥 장인 관통합성패,1
,곰 뼈,5
,영석,60
,고급 빙하토 정제재,5
완성품,봉인된 백청산맥 명공 방어합성패,5
제작비,,2200
재료,백청산맥 장인 방어합성패,1
,곰 뼈,5
,영석,60
,고급 빙하토 정제재,5
완성품,봉인된 백청산맥 명공 대응합성패,5
제작비,,2200
재료,백청산맥 장인 대응합성패,1
,곰 뼈,5
,영석,60
,고급 빙하토 정제재,5
완성품,봉인된 백청산맥 명공 치명합성패,5
제작비,,2200
재료,백청산맥 장인 치명합성패,1
,곰 뼈,5
,영석,60
,고급 빙하토 정제재,5
완성품,봉인된 백청산맥 명공 명중합성패,5
제작비,,2200
재료,백청산맥 장인 명중합성패,1
,곰 뼈,5
,영석,60
,고급 빙하토 정제재,5
완성품,봉인된 백청산맥 명공 막기합성패,5
제작비,,2200
재료,백청산맥 장인 막기합성패,1
,곰 뼈,5
,영석,60
,고급 빙하토 정제재,5
완성품,백색 가루,1
제작비,,100000
재료,곰 뼈,1
,영석,45
완성품,봉인된 백청산맥 명인 치명합성패,1
제작비,,2200
재료,백청산맥 명공 치명합성패,1
,영석,50
,명인의 합성패 도안,3
완성품,봉인된 백청산맥 명인 방어합성패,1
제작비,,2200
재료,백청산맥 명공 방어합성패,1
,영석,50
,명인의 합성패 도안,3
완성품,봉인된 백청산맥 명인 회피합성패,1
제작비,,2200
재료,백청산맥 명공 회피합성패,1
,영석,50
,명인의 합성패 도안,3
완성품,봉인된 백청산맥 명인 명중합성패,1
제작비,,2200
재료,백청산맥 명공 명중합성패,1
,영석,50
,명인의 합성패 도안,3
완성품,봉인된 백청산맥 명인 막기합성패,1
제작비,,2200
재료,백청산맥 명공 막기합성패,1
,영석,50
,명인의 합성패 도안,3
완성품,봉인된 백청산맥 명인 관통합성패,1
제작비,,2200
재료,백청산맥 명공 관통합성패,1
,영석,50
,명인의 합성패 도안,3
완성품,봉인된 백청산맥 명인 대응합성패,1
제작비,,2200
재료,백청산맥 명공 대응합성패,1
,영석,50
,명인의 합성패 도안,3
완성품,봉인된 백청산맥 거장 치명합성패,1
제작비,,50000
재료,백청산맥 명인 치명합성패,1
,고급 빙하토 정제재,8
,거장의 징표,3
완성품,봉인된 백청산맥 거장 방어합성패,1
제작비,,50000
재료,백청산맥 명인 방어합성패,1
,고급 빙하토 정제재,8
,거장의 징표,3
완성품,봉인된 백청산맥 거장 회피합성패,1
제작비,,50000
재료,백청산맥 명인 회피합성패,1
,고급 빙하토 정제재,8
,거장의 징표,3
완성품,봉인된 백청산맥 거장 명중합성패,1
제작비,,50000
재료,백청산맥 명인 명중합성패,1
,고급 빙하토 정제재,8
,거장의 징표,3
완성품,봉인된 백청산맥 거장 막기합성패,1
제작비,,50000
재료,백청산맥 명인 막기합성패,1
,고급 빙하토 정제재,8
,거장의 징표,3
완성품,봉인된 백청산맥 거장 관통합성패,1
제작비,,50000
재료,백청산맥 명인 관통합성패,1
,고급 빙하토 정제재,8
,거장의 징표,3
완성품,봉인된 백청산맥 거장 대응합성패,1
제작비,,50000
재료,백청산맥 명인 대응합성패,1
,고급 빙하토 정제재,8
,거장의 징표,3